Library\Bee\artifacts\movedfrom\UnityEditor.UI.ref.dll_16330212486979997462.movedfrom
Library\Bee\artifacts\movedfrom\UnityEngine.Purchasing.Stores.ref.dll_2335916520303845915.movedfrom
Library\Bee\artifacts\movedfrom\UnityEngine.Purchasing.ref.dll_6047786691602596427.movedfrom
Library\Bee\artifacts\movedfrom\UnityEngine.UI.ref.dll_11458960751481943937.movedfrom
Library\Bee\artifacts\movedfrom\UnityEditor.Graphs.dll_8701718789396030822.movedfrom
Library\Bee\artifacts\movedfrom\UnityEditor.CoreModule.dll_8089709568676892468.movedfrom
Library\Bee\artifacts\movedfrom\UnityEditor.DeviceSimulatorModule.dll_12021989658986598605.movedfrom
Library\Bee\artifacts\movedfrom\UnityEditor.dll_15584843823398220833.movedfrom
Library\Bee\artifacts\movedfrom\UnityEditor.GraphViewModule.dll_11054634194880609874.movedfrom
Library\Bee\artifacts\movedfrom\UnityEditor.PackageManagerUIModule.dll_8728902325034812304.movedfrom
Library\Bee\artifacts\movedfrom\UnityEditor.QuickSearchModule.dll_11428290377459139636.movedfrom
Library\Bee\artifacts\movedfrom\UnityEditor.SceneTemplateModule.dll_4357005533344829749.movedfrom
Library\Bee\artifacts\movedfrom\UnityEditor.UIBuilderModule.dll_17145943028594587526.movedfrom
Library\Bee\artifacts\movedfrom\UnityEditor.UIElementsModule.dll_12851148477290863088.movedfrom
Library\Bee\artifacts\movedfrom\UnityEditor.UIElementsSamplesModule.dll_16732674537513924221.movedfrom
Library\Bee\artifacts\movedfrom\UnityEditor.UIServiceModule.dll_2802560281890162592.movedfrom
Library\Bee\artifacts\movedfrom\UnityEditor.UnityConnectModule.dll_1078284453379889130.movedfrom
Library\Bee\artifacts\movedfrom\UnityEngine.AccessibilityModule.dll_8006446902690461906.movedfrom
Library\Bee\artifacts\movedfrom\UnityEngine.AIModule.dll_15160918950138773256.movedfrom
Library\Bee\artifacts\movedfrom\UnityEngine.AndroidJNIModule.dll_3504183444845938886.movedfrom
Library\Bee\artifacts\movedfrom\UnityEngine.AnimationModule.dll_7489327179790783224.movedfrom
Library\Bee\artifacts\movedfrom\UnityEngine.ARModule.dll_10077134539028684241.movedfrom
Library\Bee\artifacts\movedfrom\UnityEngine.AssetBundleModule.dll_16321788859893299494.movedfrom
Library\Bee\artifacts\movedfrom\UnityEngine.AudioModule.dll_3089003825972082154.movedfrom
Library\Bee\artifacts\movedfrom\UnityEngine.ClothModule.dll_10504282844908508366.movedfrom
Library\Bee\artifacts\movedfrom\UnityEngine.ClusterInputModule.dll_10273637728596830896.movedfrom
Library\Bee\artifacts\movedfrom\UnityEngine.ClusterRendererModule.dll_12430905117632093777.movedfrom
Library\Bee\artifacts\movedfrom\UnityEngine.CoreModule.dll_10620964911218817631.movedfrom
Library\Bee\artifacts\movedfrom\UnityEngine.CrashReportingModule.dll_13840258658508160855.movedfrom
Library\Bee\artifacts\movedfrom\UnityEngine.DirectorModule.dll_708888907727398972.movedfrom
Library\Bee\artifacts\movedfrom\UnityEngine.dll_787219242877124870.movedfrom
Library\Bee\artifacts\movedfrom\UnityEngine.DSPGraphModule.dll_1092083456549009757.movedfrom
Library\Bee\artifacts\movedfrom\UnityEngine.GameCenterModule.dll_6552357446501382583.movedfrom
Library\Bee\artifacts\movedfrom\UnityEngine.GIModule.dll_7683897991592240930.movedfrom
Library\Bee\artifacts\movedfrom\UnityEngine.GridModule.dll_8130786501684006998.movedfrom
Library\Bee\artifacts\movedfrom\UnityEngine.HotReloadModule.dll_16805231941368327802.movedfrom
Library\Bee\artifacts\movedfrom\UnityEngine.ImageConversionModule.dll_1762438009907615301.movedfrom
Library\Bee\artifacts\movedfrom\UnityEngine.IMGUIModule.dll_7151144478644177355.movedfrom
Library\Bee\artifacts\movedfrom\UnityEngine.InputLegacyModule.dll_8342847513288503063.movedfrom
Library\Bee\artifacts\movedfrom\UnityEngine.InputModule.dll_10472030550827440782.movedfrom
Library\Bee\artifacts\movedfrom\UnityEngine.JSONSerializeModule.dll_14930600745574046044.movedfrom
Library\Bee\artifacts\movedfrom\UnityEngine.LocalizationModule.dll_14762823113255984553.movedfrom
Library\Bee\artifacts\movedfrom\UnityEngine.ParticleSystemModule.dll_1379442032140405477.movedfrom
Library\Bee\artifacts\movedfrom\UnityEngine.PerformanceReportingModule.dll_14967921107119746590.movedfrom
Library\Bee\artifacts\movedfrom\UnityEngine.Physics2DModule.dll_13012411514602687117.movedfrom
Library\Bee\artifacts\movedfrom\UnityEngine.PhysicsModule.dll_6445050756023542267.movedfrom
Library\Bee\artifacts\movedfrom\UnityEngine.ProfilerModule.dll_4331534764657340233.movedfrom
Library\Bee\artifacts\movedfrom\UnityEngine.RuntimeInitializeOnLoadManagerInitializerModule.dll_1581590458260428118.movedfrom
Library\Bee\artifacts\movedfrom\UnityEngine.ScreenCaptureModule.dll_16797252103227295166.movedfrom
Library\Bee\artifacts\movedfrom\UnityEngine.SharedInternalsModule.dll_11278894584066642325.movedfrom
Library\Bee\artifacts\movedfrom\UnityEngine.SpriteMaskModule.dll_4907543645966126897.movedfrom
Library\Bee\artifacts\movedfrom\UnityEngine.SpriteShapeModule.dll_18150581651200045360.movedfrom
Library\Bee\artifacts\movedfrom\UnityEngine.StreamingModule.dll_2054869258648898102.movedfrom
Library\Bee\artifacts\movedfrom\UnityEngine.SubstanceModule.dll_17955694473039464516.movedfrom
Library\Bee\artifacts\movedfrom\UnityEngine.SubsystemsModule.dll_12594456355216111428.movedfrom
Library\Bee\artifacts\movedfrom\UnityEngine.TerrainModule.dll_8338387165342051049.movedfrom
Library\Bee\artifacts\movedfrom\UnityEngine.TerrainPhysicsModule.dll_1413967603914491250.movedfrom
Library\Bee\artifacts\movedfrom\UnityEngine.TextCoreModule.dll_11714230551305836620.movedfrom
Library\Bee\artifacts\movedfrom\UnityEngine.TextRenderingModule.dll_1322727698954667443.movedfrom
Library\Bee\artifacts\movedfrom\UnityEngine.TilemapModule.dll_1347788447902895090.movedfrom
Library\Bee\artifacts\movedfrom\UnityEngine.TLSModule.dll_13708688774885161999.movedfrom
Library\Bee\artifacts\movedfrom\UnityEngine.UIElementsModule.dll_12900245279281607483.movedfrom
Library\Bee\artifacts\movedfrom\UnityEngine.UIElementsNativeModule.dll_14095421309970314162.movedfrom
Library\Bee\artifacts\movedfrom\UnityEngine.UIModule.dll_14833174519929734324.movedfrom
Library\Bee\artifacts\movedfrom\UnityEngine.UmbraModule.dll_11939892215109263709.movedfrom
Library\Bee\artifacts\movedfrom\UnityEngine.UNETModule.dll_2741433480526491608.movedfrom
Library\Bee\artifacts\movedfrom\UnityEngine.UnityAnalyticsModule.dll_3658105980092161249.movedfrom
Library\Bee\artifacts\movedfrom\UnityEngine.UnityConnectModule.dll_18182819563023947925.movedfrom
Library\Bee\artifacts\movedfrom\UnityEngine.UnityCurlModule.dll_11172323008778831077.movedfrom
Library\Bee\artifacts\movedfrom\UnityEngine.UnityTestProtocolModule.dll_11815506746875120595.movedfrom
Library\Bee\artifacts\movedfrom\UnityEngine.UnityWebRequestAssetBundleModule.dll_16356487511920181362.movedfrom
Library\Bee\artifacts\movedfrom\UnityEngine.UnityWebRequestAudioModule.dll_5167054633257695414.movedfrom
Library\Bee\artifacts\movedfrom\UnityEngine.UnityWebRequestModule.dll_3032180056759021764.movedfrom
Library\Bee\artifacts\movedfrom\UnityEngine.UnityWebRequestTextureModule.dll_9374535361182228811.movedfrom
Library\Bee\artifacts\movedfrom\UnityEngine.UnityWebRequestWWWModule.dll_2550601519149476487.movedfrom
Library\Bee\artifacts\movedfrom\UnityEngine.VehiclesModule.dll_9338623069628413911.movedfrom
Library\Bee\artifacts\movedfrom\UnityEngine.VFXModule.dll_4547971784671470972.movedfrom
Library\Bee\artifacts\movedfrom\UnityEngine.VideoModule.dll_5757813674231566735.movedfrom
Library\Bee\artifacts\movedfrom\UnityEngine.VirtualTexturingModule.dll_16729099580249928765.movedfrom
Library\Bee\artifacts\movedfrom\UnityEngine.VRModule.dll_2354305257825372716.movedfrom
Library\Bee\artifacts\movedfrom\UnityEngine.WindModule.dll_699212949449636040.movedfrom
Library\Bee\artifacts\movedfrom\UnityEngine.XRModule.dll_6010879629546379146.movedfrom
Library\Bee\artifacts\movedfrom\UnityEditor.WindowsStandalone.Extensions.dll_5783832552035543468.movedfrom
Library\Bee\artifacts\movedfrom\Unity.Analytics.StandardEvents.dll_696486661355468102.movedfrom
Library\Bee\artifacts\movedfrom\Unity.Analytics.Editor.dll_18197947958124993450.movedfrom
Library\Bee\artifacts\movedfrom\Unity.Analytics.Tracker.dll_2739380716536916071.movedfrom